…
**3. Use `mutate()` Change the variables `HuntCat`, `LandUse`, and `TransectID` to factors.**

``` r
gabon %>% 
  mutate(HuntCat=as.factor(HuntCat),
         LandUse=as.factor(LandUse),
         TransectID=as.factor(TransectID))
```

```
## # A tibble: 24 × 26
##    TransectID Distance HuntCat  NumHouseholds LandUse Veg_Rich Veg_Stems
##    <fct>         <dbl> <fct>            <dbl> <fct>      <dbl>     <dbl>
##  1 1              7.14 Moderate            54 Park        16.7      31.2
##  2 2             17.3  None                54 Park        15.8      37.4
##  3 2             18.3  None                29 Park        16.9      32.3
##  4 3             20.8  None                29 Logging     12.4      29.4
##  5 4             16.0  None                29 Park        17.1      36  
##  6 5             17.5  None                29 Park        16.5      29.2
##  7 6             24.1  None                29 Park        14.8      31.2
##  8 7             19.8  None                54 Logging     13.2      32.6
##  9 8              5.78 High                25 Neither     12.6      23.7
## 10 9              5.13 High                73 Logging     16        27.1
## # ℹ 14 more rows
## # ℹ 19 more variables: Veg_liana <dbl>, Veg_DBH <dbl>, Veg_Canopy <dbl>,
## #   Veg_Understory <dbl>, RA_Apes <dbl>, RA_Birds <dbl>, RA_Elephant <dbl>,
## #   RA_Monkeys <dbl>, RA_Rodent <dbl>, RA_Ungulate <dbl>,
## #   Rich_AllSpecies <dbl>, Evenness_AllSpecies <dbl>,
## #   Diversity_AllSpecies <dbl>, Rich_BirdSpecies <dbl>,
## #   Evenness_BirdSpecies <dbl>, Diversity_BirdSpecies <dbl>, …
```
…
**7. Use `filter` to find the transect that has the highest relative abundance of elephants. What land use type is this? Use `arrange()` to sort your results.** 

Transect 18 has the highest relative abundance of elephants 2.30 %, and the land type use is 'Logging'. 

``` r
gabon %>% 
  select(TransectID, LandUse, RA_Elephant) %>% 
  arrange(-RA_Elephant)
```

```
## # A tibble: 24 × 3
##    TransectID LandUse RA_Elephant
##         <dbl> <chr>         <dbl>
##  1         18 Logging        2.3 
##  2          8 Neither        2.2 
##  3          2 Park           1.33
##  4          6 Park           1.11
##  5          4 Park           1   
##  6         13 Logging        0.99
##  7          2 Park           0.86
##  8         21 Neither        0.77
##  9          3 Logging        0.56
## 10         14 Logging        0.52
## # ℹ 14 more rows
```
…
