…
``` r
superhero_info %>%
  mutate(across(-1, ~ tolower(.))) %>% 
  select(name, alignment) %>% 
  filter(alignment=='bad')
```

```
## # A tibble: 207 × 2
##    name          alignment
##    <chr>         <chr>    
##  1 Abomination   bad      
##  2 Abraxas       bad      
##  3 Absorbing Man bad      
##  4 Air-Walker    bad      
##  5 Ajax          bad      
##  6 Alex Mercer   bad      
##  7 Alien         bad      
##  8 Amazo         bad      
##  9 Ammo          bad      
## 10 Angela        bad      
## # ℹ 197 more rows
```


``` r
superhero_info %>% 
   mutate(across(-1, ~ tolower(.))) %>%  
  filter(alignment=='bad')
```

```
## # A tibble: 207 × 10
##    name  gender eye_color race  hair_color height publisher skin_color alignment
##    <chr> <chr>  <chr>     <chr> <chr>      <chr>  <chr>     <chr>      <chr>    
##  1 Abom… male   green     huma… no hair    203    marvel c… <NA>       bad      
##  2 Abra… male   blue      cosm… black      <NA>   marvel c… <NA>       bad      
##  3 Abso… male   blue      human no hair    193    marvel c… <NA>       bad      
##  4 Air-… male   blue      <NA>  white      188    marvel c… <NA>       bad      
##  5 Ajax  male   brown     cybo… black      193    marvel c… <NA>       bad      
##  6 Alex… male   <NA>      human <NA>       <NA>   wildstorm <NA>       bad      
##  7 Alien male   <NA>      xeno… no hair    244    dark hor… black      bad      
##  8 Amazo male   red       andr… <NA>       257    dc comics <NA>       bad      
##  9 Ammo  male   brown     human black      188    marvel c… <NA>       bad      
## 10 Ange… female <NA>      <NA>  <NA>       <NA>   image co… <NA>       bad      
## # ℹ 197 more rows
## # ℹ 1 more variable: weight <chr>
```
…
6. Who has the height advantage- bad guys or good guys? Convert their height to meters and sort from tallest to shortest.  

**The good guys have the height advantage.**


``` r
good_guys %>% 
  mutate(height_m=as.numeric(height)) %>% 
  mutate(height_m=height_m/100) %>% 
  select(name, height_m) %>% 
  arrange(-height_m)
```

```
## # A tibble: 496 × 2
##    name          height_m
##    <chr>            <dbl>
##  1 Fin Fang Foom     9.75
##  2 Groot             7.01
##  3 Wolfsbane         3.66
##  4 Sasquatch         3.05
##  5 Ymir              3.05
##  6 Rey               2.97
##  7 Hellboy           2.59
##  8 Hulk              2.44
##  9 Kilowog           2.34
## 10 Cloak             2.26
## # ℹ 486 more rows
```




``` r
bad_guys %>% 
  mutate(height_m=as.numeric(height)) %>% 
  mutate(height_m=height_m/100) %>% 
  select(name, height_m) %>% 
  arrange(-height_m) 
```

```
## # A tibble: 207 × 2
##    name           height_m
##    <chr>             <dbl>
##  1 MODOK              3.66
##  2 Onslaught          3.05
##  3 Sauron             2.79
##  4 Solomon Grundy     2.79
##  5 Darkseid           2.67
##  6 Amazo              2.57
##  7 Alien              2.44
##  8 Doomsday           2.44
##  9 Killer Croc        2.44
## 10 Venom III          2.29
## # ℹ 197 more rows
```
…
8. Who is the most powerful superhero? Have a look at the code chunk below. Use the internet to annotate each line of code so you know how it works. It's OK to use AI to help you with this task.

``` r
superhero_powers %>% # pipes the data set to the next function
  mutate(across(-1, ~ ifelse(. == TRUE, 1, 0))) %>% # checks every column except the first one, otherwise each column (.) with a value of TRUE changes to 1 and if its FALSE it will change to 0
  mutate(total_powers = rowSums(across(-1))) %>% # adds up all values across each row (except for the 1st column) and stores it in a variable called 'total_powers' 
  select(hero_names, total_powers) %>% # selects columns with the name 'hero_names' and 'total_powers'
  arrange(-total_powers) # sorts the data in a descending order
```

```
## # A tibble: 667 × 2
##    hero_names        total_powers
##    <chr>                    <dbl>
##  1 Spectre                     49
##  2 Amazo                       44
##  3 Living Tribunal             35
##  4 Martian Manhunter           35
##  5 Man of Miracles             34
##  6 Captain Marvel              33
##  7 T-X                         33
##  8 Galactus                    32
##  9 T-1000                      32
## 10 Mister Mxyzptlk             31
## # ℹ 657 more rows
```
…
