…
4. What is the total catch for each `isscaap_taxonomic_group` in the data set?

``` r
fisheries %>% 
  group_by(isscaap_taxonomic_group) %>% 
  summarize(total_catch=sum(catch, na.rm=T))
```

```
## # A tibble: 30 × 2
##    isscaap_taxonomic_group              total_catch
##    <chr>                                      <dbl>
##  1 Abalones, winkles, conchs                  36324
##  2 Carps, barbels and other cyprinids         13834
##  3 Clams, cockles, arkshells                 130839
##  4 Cods, hakes, haddocks                    1218092
##  5 Crabs, seaspiders                         114419
##  6 Flounders, halibuts, soles                226309
##  7 Herrings, sardines, anchovies            1898529
##  8 Horseshoe crabs and other arachnoids         901
##  9 King crabs, squatlobsters                   9805
## 10 Lobsters, spinyrock lobsters               96630
## # ℹ 20 more rows
```

5. Based on the `asfis_species_name`, what are the top 5 most caught species? (note: "Osteichthyes" is not a species, it refers to unidentified fish. You should filter this one out.).

``` r
fisheries %>% 
  filter(asfis_species_name != 'Osteichthyes') %>% 
  group_by(asfis_species_name) %>% 
  summarize(top_species=sum(catch, na.rm=T), .groups='keep') %>% 
  arrange(desc(top_species))
```

```
## # A tibble: 1,545 × 2
## # Groups:   asfis_species_name [1,545]
##    asfis_species_name      top_species
##    <chr>                         <dbl>
##  1 Engraulis ringens            540739
##  2 Theragra chalcogramma        473722
##  3 Clupea harengus              264304
##  4 Gadus morhua                 217930
##  5 Katsuwonus pelamis           194923
##  6 Sardinops sagax              176094
##  7 Scomber japonicus            175444
##  8 Trachurus murphyi            152034
##  9 Sardinops melanostictus      144774
## 10 Mallotus villosus            131239
## # ℹ 1,535 more rows
```

6. For the species that was caught the most, which country had the highest catch?

``` r
fisheries %>% 
  arrange(-catch)
```

```
## # A tibble: 376,771 × 10
##    country               common_name isscaap_group_number isscaap_taxonomic_gr…¹
##    <chr>                 <chr>                      <dbl> <chr>                 
##  1 Peru                  Anchoveta(…                   35 Herrings, sardines, a…
##  2 Peru                  Anchoveta(…                   35 Herrings, sardines, a…
##  3 Peru                  Anchoveta(…                   35 Herrings, sardines, a…
##  4 Peru                  Anchoveta(…                   35 Herrings, sardines, a…
##  5 Japan                 Japanese p…                   35 Herrings, sardines, a…
##  6 Chile                 Chilean ja…                   37 Miscellaneous pelagic…
##  7 Chile                 Chilean ja…                   37 Miscellaneous pelagic…
##  8 United States of Ame… Alaska pol…                   32 Cods, hakes, haddocks 
##  9 Chile                 South Amer…                   35 Herrings, sardines, a…
## 10 China                 Marine fis…                   39 Marine fishes not ide…
## # ℹ 376,761 more rows
## # ℹ abbreviated name: ¹​isscaap_taxonomic_group
## # ℹ 6 more variables: asfis_species_number <chr>, asfis_species_name <chr>,
## #   fao_major_fishing_area <dbl>, measure <chr>, year <dbl>, catch <dbl>
```
…
``` r
fisheries %>%
  filter(between(year,2002,2012)) %>% 
  group_by(country) %>% 
  summarize(overall_catch=sum(catch, na.rm=T)) %>% 
  arrange(-overall_catch)
```

```
## # A tibble: 200 × 2
##    country                  overall_catch
##    <chr>                            <dbl>
##  1 China                           269238
##  2 United States of America        167309
##  3 Russian Federation              112028
##  4 Indonesia                       104362
##  5 Japan                           104152
##  6 Chile                            97030
##  7 Spain                            92286
##  8 Peru                             86482
##  9 Portugal                         69778
## 10 India                            69681
## # ℹ 190 more rows
```

8. Which country had the largest catch in a single year? What year was it? 

``` r
fisheries %>% 
  group_by(country, year) %>% 
  summarize(largest_catch=sum(catch, na.rm=T), .groups='keep') %>% 
  arrange(-largest_catch)
```

```
## # A tibble: 11,583 × 3
## # Groups:   country, year [11,583]
##    country  year largest_catch
##    <chr>   <dbl>         <dbl>
##  1 Peru     1970         77000
##  2 Peru     1971         76800
##  3 Peru     1968         62700
##  4 China    2001         39327
##  5 Japan    1972         30167
##  6 Japan    1988         29701
##  7 China    2002         28967
##  8 China    2010         27851
##  9 Japan    1976         27825
## 10 China    1998         27593
## # ℹ 11,573 more rows
```
…
12. Perform one analysis of your choice on the fisheries dataframe that includes a minimum of three lines of code and two functions. Write a seentence or two that explains the intent of your code.

``` r
fisheries
```

```
## # A tibble: 376,771 × 10
##    country common_name               isscaap_group_number isscaap_taxonomic_gr…¹
##    <chr>   <chr>                                    <dbl> <chr>                 
##  1 Albania Angelsharks, sand devils…                   38 Sharks, rays, chimaer…
##  2 Albania Angelsharks, sand devils…                   38 Sharks, rays, chimaer…
##  3 Albania Angelsharks, sand devils…                   38 Sharks, rays, chimaer…
##  4 Albania Angelsharks, sand devils…                   38 Sharks, rays, chimaer…
##  5 Albania Angelsharks, sand devils…                   38 Sharks, rays, chimaer…
##  6 Albania Angelsharks, sand devils…                   38 Sharks, rays, chimaer…
##  7 Albania Angelsharks, sand devils…                   38 Sharks, rays, chimaer…
##  8 Albania Angelsharks, sand devils…                   38 Sharks, rays, chimaer…
##  9 Albania Angelsharks, sand devils…                   38 Sharks, rays, chimaer…
## 10 Albania Angelsharks, sand devils…                   38 Sharks, rays, chimaer…
## # ℹ 376,761 more rows
## # ℹ abbreviated name: ¹​isscaap_taxonomic_group
## # ℹ 6 more variables: asfis_species_number <chr>, asfis_species_name <chr>,
## #   fao_major_fishing_area <dbl>, measure <chr>, year <dbl>, catch <dbl>
```
…
